{
  "qs": {
    "0": {
      "uid": "3TjNCcfZVkMnIrdq1Wmay4je3MG2",
      "answeruser": {
        "MDOX3XMTPoWjNqieQTZe7nuHcuf1": true
      },
      "deadline": "2017-11-05T15:00:00.000Z",
      "timestamp": "2017-08-05T13:22:40.000Z",
      "question": "どの色が一番好きですか？",
      "gid": "public",
      "A": "赤",
      "B": "青",
      "C": "黄",
      "D": "緑",
      "min": null,
      "max": null,
      "unit": null,
      "mode": true,
      "closed": false
    },
    "1": {
      "uid": "MDOX3XMTPoWjNqieQTZe7nuHcuf1",
      "answeruser": {},
      "deadline": "2017-12-15T15:00:00.000Z",
      "timestamp": "2017-08-05T13:22:40.000Z",
      "question": "飼うならどれ？",
      "gid": "public",
      "A": "いぬ",
      "B": "ねこ",
      "C": "とり",
      "D": "かめ",
      "min": null,
      "max": null,
      "unit": null,
      "mode": true,
      "closed": false
    },
    "5": {
      "uid": "MDOX3XMTPoWjNqieQTZe7nuHcuf1",
      "answeruser": {},
      "deadline": "2017-12-01T15:00:00.000Z",
      "timestamp": "2017-08-05T13:22:40.000Z",
      "question": "好きなラーメンの味は？",
      "gid": "public",
      "A": "しょうゆ",
      "B": "みそ",
      "C": "とんこつ",
      "D": "しお",
      "min": null,
      "max": null,
      "unit": null,
      "mode": true,
      "closed": false
    }
  },
  "users": {
    "3TjNCcfZVkMnIrdq1Wmay4je3MG2": {
      "email": "highbridge6363@gmail.com",
      "imageUrl": "/image/3TjNCcfZVkMnIrdq1Wmay4je3MG2.jpg",
      "name": "takuya takahashi",
      "gender": "man",
      "birthday": "1992-06-03T9:00:00.000Z",
      "job": "programmer",
      "country": "japan",
      "state": null,
      "prefecture": "kanagawa",
      "groups": {
        "public": true,
        "man": true,
        "20s": true,
        "japan": true,
        "kanagawa": true,
        "programmer": true
      },
      "answers": {},
      "asks": {
        "0": true
      }
    },
    "BZ34g4q3eKRuxFJEoXZ5vp0yg102": {
      "birthday": "",
      "country": "",
      "email": "sample@example.com",
      "gender": "",
      "groups": {
        "public": true
      },
      "imageUrl": "",
      "job": "",
      "name": "",
      "prefecture": "",
      "state": ""
    },
    "MDOX3XMTPoWjNqieQTZe7nuHcuf1": {
      "email": "cho-tobu.suggoitobu@ezweb.ne.jp",
      "imageUrl": "/image/MDOX3XMTPoWjNqieQTZe7nuHcuf1.jpg",
      "name": "yusuke saitou",
      "gender": "man",
      "birthday": "1884-12-01T9:00:00.000Z",
      "job": "doctor",
      "country": "japan",
      "state": {},
      "prefecture": "tokyo",
      "groups": {
        "public": true,
        "man": true,
        "30s": true,
        "japan": true,
        "tokyo": true,
        "doctor": true
      },
      "answers": {
        "0": true
      },
      "asks": {
        "1": true
      }
    }
  },
  "groups": {
    "public": {
      "name": "public",
      "uid": "application",
      "members": {
        "3TjNCcfZVkMnIrdq1Wmay4je3MG2": true,
        "MDOX3XMTPoWjNqieQTZe7nuHcuf1": true
      }
    },
    "japan": {
      "name": "japan",
      "uid": "application",
      "members": {
        "3TjNCcfZVkMnIrdq1Wmay4je3MG2": true,
        "MDOX3XMTPoWjNqieQTZe7nuHcuf1": true
      }
    },
    "man": {
      "name": "man",
      "uid": "application",
      "members": {
        "3TjNCcfZVkMnIrdq1Wmay4je3MG2": true,
        "MDOX3XMTPoWjNqieQTZe7nuHcuf1": true
      }
    },
    "woman": {
      "name": "woman",
      "uid": "application",
      "members": {}
    },
    "programmer": {
      "name": "programmer",
      "uid": "application",
      "members": {
        "3TjNCcfZVkMnIrdq1Wmay4je3MG2": true
      }
    },
    "doctor": {
      "name": "doctor",
      "uid": "application",
      "members": {
        "MDOX3XMTPoWjNqieQTZe7nuHcuf1": true
      }
    },
    "20s": {
      "name": "20s",
      "uid": "application",
      "members": {
        "3TjNCcfZVkMnIrdq1Wmay4je3MG2": true
      }
    },
    "30s": {
      "name": "30s",
      "uid": "application",
      "members": {
        "MDOX3XMTPoWjNqieQTZe7nuHcuf1": true
      }
    },
    "kanagawa": {
      "name": "kanagawa",
      "uid": "application",
      "members": {
        "3TjNCcfZVkMnIrdq1Wmay4je3MG2": true
      }
    },
    "tokyo": {
      "name": "tokyo",
      "uid": "application",
      "members": {
        "MDOX3XMTPoWjNqieQTZe7nuHcuf1": true
      }
    }
  },
  "answers": {
    "0": {
      "MDOX3XMTPoWjNqieQTZe7nuHcuf1": {
        "choice": "q1",
        "comment": "赤色iphone欲しい",
        "timestamp": "2017-10-05T15:00:00.000Z"
      }
    }
  },
  "statistics": {
    "0": {
      "all": 1,
      "q1": 1,
      "q2": 0,
      "q3": 0,
      "q4": 0,
      "min": null,
      "max": null,
      "avarage": null,
      "deviation": null
    },
    "1": {
      "all": 0,
      "q1": 0,
      "q2": 0,
      "q3": 0,
      "q4": 0,
      "min": null,
      "max": null,
      "avarage": null,
      "deviation": null
    },
    "5": {
      "all": 0,
      "q1": 0,
      "q2": 0,
      "q3": 0,
      "q4": 0,
      "min": null,
      "max": null,
      "avarage": null,
      "deviation": null
    }
  },
  "deadlines": {
    "0": {
      "deadline": "2017-11-05T15:00:00.000Z",
      "gid": "public"
    },
    "1": {
      "deadline": "2017-12-15T15:00:00.000Z",
      "gid": "public"
    },
    "5": {
      "deadline": "2017-12-01T15:00:00.000Z",
      "gid": "public"
    }
  }
}
